<svg width="80" height="80" viewBox="0 0 80 80" fill="none" xmlns="http://www.w3.org/2000/svg">
<path d="M40.1822 0C40.1608 0 40.1179 0 40.0536 0C18.362 0 0.721481 17.6405 0.721481 39.3321C0.721481 48.1845 3.74373 56.7797 9.2738 63.703L3.55082 77.0137C3.07926 78.1069 3.59369 79.3715 4.66541 79.8217C5.05123 79.9931 5.47992 80.036 5.88717 79.9717L26.8714 76.285C31.0726 77.8068 35.4881 78.5785 39.9464 78.557C61.638 78.557 79.2785 60.9165 79.2785 39.2249C79.3214 17.5976 61.8095 0.0214344 40.1822 0ZM26.7214 31.4228H38.296C39.4749 31.4228 40.4394 32.3874 40.4394 33.5662C40.4394 34.7451 39.4749 35.7097 38.296 35.7097H26.7214C25.5425 35.7097 24.578 34.7451 24.578 33.5662C24.578 32.3874 25.5425 31.4228 26.7214 31.4228ZM53.3 46.4269H26.7214C25.5425 46.4269 24.578 45.4623 24.578 44.2834C24.578 43.1046 25.5425 42.14 26.7214 42.14H53.3C54.4789 42.14 55.4435 43.1046 55.4435 44.2834C55.4435 45.4623 54.4789 46.4269 53.3 46.4269Z" fill="url(#paint0_linear)"/>
<defs>
<linearGradient id="paint0_linear" x1="10" y1="12.5" x2="60.5" y2="80" gradientUnits="userSpaceOnUse">
<stop offset="0.0520833" stop-color="#F63F57"/>
<stop offset="0.260417" stop-color="#3185FC"/>
<stop offset="0.505208" stop-color="#C4CCC1"/>
<stop offset="0.729167" stop-color="#03CEA4"/>
<stop offset="0.932292" stop-color="#7A3EFE"/>
</linearGradient>
</defs>
</svg>
